"country";"Middle_East_Sit.";"Palestine_A";"Right_Pal.";"Palestine_B";"Palestine_C";"Chemical_Weapons";"HR_and_democratization";"Nuclear_Weapons";"HR_Iran";"HR_Israel";"Sustainable_Dev";"HR_Myanmar";"Armement";"Cuba_Emb";"Nuclear_disarmement";"Jerusalem_status";"HR_Syria"
"Afghanistan";"yes";"yes";"yes";"yes";"yes";"yes";"yes";"yes";"no";"yes";"abstain";"yes";"yes";"yes";"yes";"yes";"yes"
"Albania";"yes";"yes";"abstain";"yes";"abstain";"yes";"yes";"yes";"yes";"abstain";"yes";"yes";"yes";"yes";"yes";"abstain";"yes"
"Algeria";"yes";"yes";"yes";"yes";"yes";"yes";"yes";"abstain";"abstain";"yes";"abstain";"yes";"yes";"yes";"yes";"yes";"yes"
"Andorra";"yes";"yes";"abstain";"yes";"abstain";"yes";"yes";"yes";"yes";"abstain";"yes";"yes";"yes";"yes";"yes";"abstain";"yes"
"Angola";"yes";"yes";"yes";"yes";"yes";"abstain";"abstain";"abstain";"abstain";"yes";"yes";"yes";"yes";"yes";"yes";"yes";"yes"
"Antigua & Barbuda";NA;NA;NA;NA;NA;"yes";"yes";"yes";"abstain";"yes";"yes";"yes";"yes";NA;NA;NA;NA
"Argentina";"yes";"yes";"yes";"yes";"abstain";"yes";"yes";"yes";"yes";"abstain";"yes";"yes";"yes";"yes";"yes";"yes";"yes"
"Armenia";"yes";"yes";"abstain";"yes";"abstain";"abstain";"yes";"yes";"no";"abstain";"yes";NA;"yes";"yes";"yes";"abstain";"yes"
"Australia";"abstain";"abstain";"no";"no";"no";"yes";"yes";"yes";"yes";"no";"yes";"yes";"yes";"abstain";"abstain";"no";"no"
"Austria";"yes";"yes";"abstain";"yes";"abstain";"yes";"yes";"abstain";"yes";"abstain";"yes";"yes";"yes";"yes";"yes";"abstain";"yes"
"Azerbaijan";"yes";"yes";"yes";"yes";"yes";"yes";"yes";"yes";NA;"yes";"yes";"yes";"yes";"yes";"yes";"yes";"yes"
"Bahamas";"yes";"yes";"yes";"yes";"yes";"yes";"yes";"yes";"yes";"yes";"yes";"yes";"yes";"yes";"yes";"yes";"yes"
"Bahrain";"yes";"yes";"yes";"yes";"yes";"yes";"yes";"yes";"yes";"yes";"abstain";"yes";"yes";"yes";"yes";"yes";"yes"
"Bangladesh";"yes";"yes";"yes";"yes";"yes";"yes";"yes";"yes";"abstain";"yes";"abstain";"yes";"yes";"yes";"yes";"yes";"yes"
"Barbados";NA;NA;NA;NA;NA;"yes";"yes";"yes";"yes";"yes";"yes";"yes";"yes";NA;NA;NA;NA
"Belarus";"yes";"yes";NA;"yes";NA;"abstain";"yes";"yes";"no";NA;"yes";"no";"abstain";"yes";"yes";NA;"yes"
"Belgium";"yes";"yes";"abstain";"yes";"abstain";"yes";"yes";"yes";"yes";"abstain";"yes";"yes";"yes";"yes";"yes";"abstain";"yes"
"Belize";"yes";"yes";"yes";"yes";"yes";"yes";"yes";"yes";"yes";"yes";"yes";NA;"yes";"yes";"yes";"yes";"yes"
"Benin";NA;NA;NA;NA;NA;"yes";"yes";"yes";"abstain";NA;"yes";"yes";"yes";NA;NA;NA;NA
"Bhutan";"yes";"yes";"yes";"yes";"yes";"yes";"yes";"yes";"abstain";"yes";"yes";"abstain";"yes";"yes";"yes";"yes";"yes"
"Bolivia";"yes";"yes";"yes";"yes";"yes";"abstain";"abstain";"yes";"no";"yes";"abstain";NA;"yes";"yes";"yes";"yes";"yes"
"Bosnia & Herzegovina";"yes";"yes";"abstain";"yes";"abstain";"yes";"yes";"yes";"yes";"abstain";"yes";"yes";"yes";"yes";"yes";"abstain";"yes"
"Botswana";"yes";"yes";"yes";"yes";"yes";"yes";"yes";"yes";"yes";"abstain";"yes";"yes";"yes";"yes";"yes";"yes";"yes"
"Brazil";"yes";"yes";"yes";"yes";"yes";"yes";"yes";"abstain";"abstain";"abstain";"yes";"yes";"yes";"yes";"yes";"yes";"yes"
"Brunei";"yes";"yes";"yes";"yes";"yes";"yes";"yes";"yes";"no";"yes";"abstain";"yes";"yes";"yes";"yes";"yes";"yes"
"Bulgaria";"yes";"yes";"abstain";"yes";"abstain";"yes";"yes";"yes";"yes";"abstain";"yes";"yes";"yes";"yes";"yes";"abstain";"yes"
"Burkina Faso";NA;"yes";"yes";"yes";"yes";"yes";"yes";"yes";"abstain";NA;"yes";"yes";"yes";NA;"yes";"yes";"yes"
"Burundi";"yes";"yes";"yes";"yes";"yes";"no";"abstain";"yes";"no";"yes";"yes";NA;"yes";"yes";"yes";"yes";"yes"
"Cape Verde";"yes";"yes";"yes";"yes";"yes";"yes";"yes";"yes";"yes";"yes";"yes";"yes";"yes";"yes";"yes";"yes";"yes"
"Cambodia";"yes";"yes";"yes";"yes";"yes";"yes";"yes";"yes";"no";"yes";"yes";"no";"yes";"yes";"yes";"yes";"yes"
"Cameroon";"abstain";"abstain";"abstain";"abstain";"abstain";"yes";"yes";NA;"abstain";"abstain";"yes";"abstain";NA;"abstain";"abstain";"abstain";"abstain"
"Canada";"no";"no";"no";"no";"no";"yes";"yes";"yes";"yes";"no";"yes";"yes";"yes";"no";"no";"no";"no"
"Central African Republic";"abstain";"yes";"abstain";"yes";"abstain";"yes";"yes";"yes";NA;NA;"yes";NA;NA;"abstain";"yes";"abstain";"yes"
"Chad";"yes";"yes";"yes";"yes";"yes";"yes";"yes";"yes";NA;NA;NA;"yes";"yes";"yes";"yes";"yes";"yes"
"Chile";"yes";"yes";"yes";"yes";"yes";"yes";"yes";"yes";"abstain";"yes";"yes";"yes";"yes";"yes";"yes";"yes";"yes"
"China";"yes";"yes";"yes";"yes";"yes";"no";"abstain";"no";"no";"yes";"yes";"no";"yes";"yes";"yes";"yes";"yes"
"Colombia";"yes";"yes";"abstain";"yes";"abstain";"yes";"yes";"yes";"abstain";"abstain";"yes";"yes";"yes";"yes";"yes";"abstain";"yes"
"Comoros";"yes";"yes";"yes";"yes";"yes";"yes";"yes";"yes";"abstain";NA;"yes";NA;"yes";"yes";"yes";"yes";"yes"
"Congo - Brazzaville";"yes";"yes";"yes";"yes";"yes";"yes";"yes";"yes";"abstain";"yes";"yes";NA;"yes";"yes";"yes";"yes";"yes"
"Costa Rica";"yes";"yes";"yes";"yes";"yes";"yes";"yes";"abstain";"yes";"abstain";"yes";"yes";"yes";"yes";"yes";"yes";"yes"
"Côte d’Ivoire";"yes";"yes";"yes";"yes";"yes";"yes";"yes";"yes";"abstain";"yes";"yes";"abstain";"yes";"yes";"yes";"yes";"yes"
"Croatia";"yes";"yes";"abstain";"yes";"abstain";"yes";"yes";"yes";"yes";"abstain";"yes";"yes";"yes";"yes";"yes";"abstain";"yes"
"Cuba";"yes";"yes";"yes";"yes";"yes";"abstain";"abstain";"abstain";"no";"yes";"abstain";NA;"abstain";"yes";"yes";"yes";"yes"
"Cyprus";"yes";"yes";"yes";"yes";"yes";"yes";"yes";"yes";"yes";"abstain";"yes";"yes";"yes";"yes";"yes";"yes";"yes"
"Czechia";"yes";"yes";"abstain";"yes";"abstain";"yes";"yes";"yes";"yes";"abstain";"yes";"yes";"yes";"yes";"yes";"abstain";"yes"
"North Korea";"yes";"yes";"yes";"yes";"yes";"no";NA;"no";"no";"yes";"abstain";NA;"no";"yes";"yes";"yes";"yes"
"Congo - Kinshasa";NA;NA;NA;NA;NA;NA;"yes";NA;"abstain";NA;"yes";NA;"yes";NA;NA;NA;NA
"Denmark";"yes";"yes";"abstain";"yes";"abstain";"yes";"yes";"yes";"yes";"abstain";"yes";"yes";"yes";"yes";"yes";"abstain";"yes"
"Djibouti";NA;"yes";"yes";"yes";"yes";"yes";"yes";"yes";"yes";"yes";"abstain";"yes";"yes";NA;"yes";"yes";"yes"
"Dominica";NA;NA;NA;NA;NA;NA;"yes";NA;NA;NA;"yes";NA;NA;NA;NA;NA;NA
"Dominican Republic";"yes";"yes";"yes";"yes";"yes";"yes";"yes";"yes";"abstain";"yes";"yes";"abstain";"yes";"yes";"yes";"yes";"yes"
"Ecuador";"yes";"yes";"yes";"yes";"yes";"yes";"yes";"abstain";"abstain";"yes";"yes";"abstain";"abstain";"yes";"yes";"yes";"yes"
"Egypt";"yes";"yes";"yes";"yes";"yes";"yes";"yes";"abstain";"abstain";"yes";"abstain";"yes";"abstain";"yes";"yes";"yes";"yes"
"El Salvador";"yes";"yes";"yes";"yes";"yes";"yes";"yes";"yes";"yes";"yes";"yes";"yes";"yes";"yes";"yes";"yes";"yes"
"Equatorial Guinea";"yes";"yes";"yes";"yes";"yes";"yes";"yes";"yes";"abstain";"yes";"yes";"abstain";"abstain";"yes";"yes";"yes";"yes"
"Eritrea";"yes";"yes";"yes";"yes";"yes";"yes";"yes";"yes";"no";"abstain";"yes";NA;"yes";"yes";"yes";"yes";"yes"
"Estonia";"yes";"yes";"abstain";"yes";"abstain";"yes";"yes";"yes";"yes";"abstain";"yes";"yes";"yes";"yes";"yes";"abstain";"yes"
"Ethiopia";"yes";"yes";"yes";"yes";"yes";"yes";"yes";"yes";"abstain";"abstain";"yes";"abstain";"yes";"yes";"yes";"yes";"yes"
"Fiji";"yes";"abstain";"yes";"yes";"yes";"yes";"yes";"yes";"abstain";"abstain";"yes";NA;"yes";"yes";"abstain";"yes";"yes"
"Finland";"yes";"yes";"abstain";"yes";"abstain";"yes";"yes";"yes";"yes";"abstain";"yes";"yes";"yes";"yes";"yes";"abstain";"yes"
"France";"yes";"yes";"abstain";"yes";"abstain";"yes";"yes";"yes";"yes";"abstain";"yes";"yes";"yes";"yes";"yes";"abstain";"yes"
"Gabon";NA;"yes";"yes";"yes";"yes";"yes";"yes";"yes";"abstain";"yes";NA;"yes";"yes";NA;"yes";"yes";"yes"
"Gambia";"yes";"yes";"yes";"yes";"yes";"yes";"yes";"yes";"abstain";"yes";"yes";NA;"yes";"yes";"yes";"yes";"yes"
"Georgia";"yes";"yes";"abstain";"yes";"abstain";"yes";"yes";"yes";NA;"abstain";"yes";"yes";"yes";"yes";"yes";"abstain";"yes"
"Germany";"yes";"yes";"abstain";"yes";"abstain";"yes";"yes";"yes";"yes";"abstain";"yes";"yes";"yes";"yes";"yes";"abstain";"yes"
"Ghana";NA;"yes";"abstain";"yes";"abstain";"yes";"yes";"yes";"abstain";NA;"yes";"yes";"yes";NA;"yes";"abstain";"yes"
"Greece";"yes";"yes";"abstain";"yes";"abstain";"yes";"yes";"yes";"yes";"abstain";"yes";"yes";"yes";"yes";"yes";"abstain";"yes"
"Grenada";NA;NA;NA;NA;NA;NA;"yes";NA;NA;NA;"yes";NA;"yes";NA;NA;NA;NA
"Guatemala";"yes";"yes";"no";"yes";"no";"yes";"yes";"yes";"yes";"no";"yes";"yes";"yes";"yes";"yes";"no";"yes"
"Guinea";"yes";"yes";"yes";"yes";"yes";"yes";"yes";"yes";"abstain";"yes";"abstain";"yes";"yes";"yes";"yes";"yes";"yes"
"Guinea-Bissau";NA;NA;NA;NA;NA;"yes";"yes";"yes";"abstain";NA;NA;NA;"yes";NA;NA;NA;NA
"Guyana";"yes";"yes";"yes";"yes";"yes";"yes";"yes";"yes";"abstain";"yes";"yes";"yes";"yes";"yes";"yes";"yes";"yes"
"Haiti";NA;NA;NA;NA;NA;"yes";"yes";"yes";"yes";NA;"yes";NA;"yes";NA;NA;NA;NA
"Honduras";"abstain";"abstain";"no";"abstain";"no";"yes";"yes";"yes";"yes";"no";"yes";"yes";"yes";"abstain";"abstain";"no";"abstain"
"Hungary";"yes";"yes";"abstain";"yes";"abstain";"yes";"yes";"yes";"yes";"abstain";"yes";"yes";"yes";"yes";"yes";"abstain";"yes"
"Iceland";"yes";"yes";"yes";"yes";"abstain";"yes";"yes";"yes";"yes";"abstain";"yes";"yes";"yes";"yes";"yes";"yes";"yes"
"India";"yes";"yes";"yes";"yes";"yes";"yes";"yes";"abstain";"no";"yes";"yes";"abstain";"yes";"yes";"yes";"yes";"yes"
"Indonesia";"yes";"yes";"yes";"yes";"yes";"yes";"yes";"abstain";"no";"yes";"abstain";"yes";"yes";"yes";"yes";"yes";"yes"
"Iran";"yes";"yes";"yes";"yes";"yes";"no";"abstain";"abstain";"no";"yes";NA;NA;"abstain";"yes";"yes";"yes";"yes"
"Iraq";"yes";"yes";"yes";"yes";"yes";"yes";"yes";"yes";"no";"yes";"abstain";"yes";"yes";"yes";"yes";"yes";"yes"
"Ireland";"yes";"yes";"abstain";"yes";"abstain";"yes";"yes";"abstain";"yes";"abstain";"yes";"yes";"yes";"yes";"yes";"abstain";"yes"
"Israel";"no";"no";"no";"no";"no";"yes";"yes";"abstain";"yes";"no";"yes";"yes";"yes";"no";"no";"no";"no"
"Italy";"yes";"yes";"abstain";"yes";"abstain";"yes";"yes";"yes";"yes";"abstain";"yes";"yes";"yes";"yes";"yes";"abstain";"yes"
"Jamaica";"yes";"yes";"yes";"yes";"yes";"yes";"yes";"yes";"abstain";"abstain";"yes";"yes";"yes";"yes";"yes";"yes";"yes"
"Japan";"yes";"yes";"abstain";"yes";"abstain";"yes";"yes";"yes";"yes";"abstain";"yes";"abstain";"yes";"yes";"yes";"abstain";"yes"
"Jordan";"yes";"yes";"yes";"yes";"yes";"yes";"yes";"yes";"abstain";"yes";"abstain";"yes";"yes";"yes";"yes";"yes";"yes"
"Kazakhstan";"yes";"yes";"yes";"yes";"yes";"yes";"yes";"yes";"no";"yes";"yes";"yes";"yes";"yes";"yes";"yes";"yes"
"Kenya";"yes";"yes";"yes";"yes";"yes";"abstain";"yes";"yes";"abstain";"yes";"yes";"abstain";"yes";"yes";"yes";"yes";"yes"
"Kiribati";NA;NA;NA;NA;NA;"yes";"yes";NA;"abstain";NA;NA;NA;"yes";NA;NA;NA;NA
"Kuwait";"yes";"yes";"yes";"yes";"yes";"yes";"yes";"yes";"abstain";"yes";"abstain";"yes";"yes";"yes";"yes";"yes";"yes"
"Kyrgyzstan";"yes";"yes";"yes";"yes";"yes";"abstain";"yes";"yes";"no";"yes";"yes";"yes";"yes";"yes";"yes";"yes";"yes"
"Laos";"yes";"yes";"yes";"yes";"yes";"yes";"abstain";"yes";"abstain";"yes";NA;"no";"yes";"yes";"yes";"yes";"yes"
"Latvia";"yes";"yes";"abstain";"yes";"abstain";"yes";"yes";"yes";"yes";"abstain";"yes";"yes";"yes";"yes";"yes";"abstain";"yes"
"Lebanon";"yes";"yes";"yes";"yes";"yes";"abstain";"yes";"yes";"no";"yes";"abstain";"yes";"yes";"yes";"yes";"yes";"yes"
"Lesotho";"yes";"yes";"yes";"yes";"yes";"yes";"yes";"yes";"abstain";"yes";"yes";"abstain";"yes";"yes";"yes";"yes";"yes"
"Liberia";NA;NA;NA;NA;NA;"yes";"yes";"yes";"yes";NA;"yes";"yes";"yes";NA;NA;NA;NA
"Libya";"yes";"yes";"yes";"yes";"yes";"yes";"yes";"yes";"abstain";"yes";"abstain";"yes";"yes";"yes";"yes";"yes";"yes"
"Liechtenstein";"yes";"yes";"abstain";"yes";"abstain";"yes";"yes";"abstain";"yes";"abstain";"yes";"yes";"yes";"yes";"yes";"abstain";"yes"
"Lithuania";"yes";"yes";"abstain";"yes";"abstain";"yes";"yes";"yes";"yes";"abstain";"yes";"yes";"yes";"yes";"yes";"abstain";"yes"
"Luxembourg";"yes";"yes";"abstain";"yes";"abstain";"yes";"yes";"yes";"yes";"abstain";"yes";"yes";"yes";"yes";"yes";"abstain";"yes"
"Madagascar";NA;NA;NA;NA;NA;"yes";"yes";"yes";"yes";NA;"yes";"yes";"yes";NA;NA;NA;NA
"Malawi";NA;NA;NA;NA;NA;"yes";"yes";"yes";"abstain";NA;"yes";"yes";"yes";NA;NA;NA;NA
"Malaysia";"yes";"yes";"yes";"yes";"yes";"yes";"yes";"yes";"abstain";"yes";"abstain";"yes";"yes";"yes";"yes";"yes";"yes"
"Maldives";"yes";"yes";"yes";"yes";"yes";"yes";"yes";"yes";"yes";"yes";"abstain";"yes";"yes";"yes";"yes";"yes";"yes"
"Mali";"yes";"yes";"yes";"yes";"yes";"abstain";"yes";"yes";"abstain";"yes";"yes";"yes";"abstain";"yes";"yes";"yes";"yes"
"Malta";"yes";"yes";"yes";"yes";"yes";"yes";"yes";"yes";"yes";"abstain";"yes";"yes";"yes";"yes";"yes";"yes";"yes"
"Marshall Islands";"no";"no";"no";"no";"no";"yes";"yes";"yes";"yes";"no";"yes";"yes";"yes";"no";"no";"no";"no"
"Mauritania";"yes";"yes";"yes";"yes";"yes";"yes";"yes";"yes";"abstain";"yes";"abstain";"yes";"yes";"yes";"yes";"yes";"yes"
"Mauritius";"yes";"yes";"yes";"yes";"yes";"yes";"yes";"yes";"abstain";"yes";"yes";"yes";"yes";"yes";"yes";"yes";"yes"
"Mexico";"yes";"yes";"abstain";"abstain";"abstain";"yes";"yes";"yes";"abstain";"abstain";"yes";"yes";"yes";"yes";"yes";"abstain";"abstain"
"Micronesia (Federated States of)";"no";"no";"no";"no";"no";"yes";"yes";"yes";"yes";"no";"yes";"yes";"yes";"no";"no";"no";"no"
"Monaco";"yes";"yes";"abstain";"yes";"abstain";"yes";"yes";"yes";"yes";"abstain";"yes";"yes";"yes";"yes";"yes";"abstain";"yes"
"Mongolia";"yes";"yes";NA;"yes";NA;"yes";"yes";"yes";"abstain";"abstain";"yes";"abstain";"yes";"yes";"yes";NA;"yes"
"Montenegro";"yes";"yes";"abstain";"yes";"abstain";"yes";"yes";"yes";"yes";"abstain";"yes";"yes";"yes";"yes";"yes";"abstain";"yes"
"Morocco";"yes";"yes";"yes";"yes";"yes";"yes";"yes";"yes";"abstain";"yes";"abstain";"yes";"yes";"yes";"yes";"yes";"yes"
"Mozambique";"yes";"yes";"yes";"yes";"yes";"yes";"yes";"yes";"abstain";"yes";"yes";"abstain";"yes";"yes";"yes";"yes";"yes"
"Myanmar (Burma)";NA;NA;NA;NA;NA;"yes";"yes";"abstain";NA;"abstain";"yes";"no";"yes";NA;NA;NA;NA
"Namibia";"yes";"yes";"yes";"yes";"yes";"yes";"yes";"abstain";"abstain";"yes";"yes";"abstain";"yes";"yes";"yes";"yes";"yes"
"Nauru";"no";"no";"no";"no";"no";NA;NA;"yes";"abstain";"no";"yes";"abstain";"yes";"no";"no";"no";"no"
"Nepal";"yes";"yes";"yes";"yes";"yes";"yes";"yes";"yes";"abstain";"yes";"yes";"abstain";"yes";"yes";"yes";"yes";"yes"
"Netherlands";"yes";"yes";"abstain";"yes";"abstain";"yes";"yes";"yes";"yes";"abstain";"yes";"yes";"yes";"yes";"yes";"abstain";"yes"
"New Zealand";"yes";"yes";"abstain";"yes";"abstain";"yes";"yes";"abstain";"yes";"abstain";"yes";"yes";"yes";"yes";"yes";"abstain";"yes"
"Nicaragua";"yes";"yes";"yes";"yes";"yes";"abstain";"abstain";"yes";"no";"yes";"yes";NA;"yes";"yes";"yes";"yes";"yes"
"Niger";NA;NA;NA;NA;NA;NA;"yes";NA;"abstain";NA;"yes";NA;NA;NA;NA;NA;NA
"Nigeria";"yes";"yes";"yes";"yes";"yes";"yes";"yes";"abstain";"abstain";NA;"yes";"yes";"yes";"yes";"yes";"yes";"yes"
"Norway";"yes";"yes";"abstain";"yes";"abstain";"yes";"yes";"yes";"yes";"abstain";"yes";"yes";"yes";"yes";"yes";"abstain";"yes"
"Oman";"yes";"yes";"yes";"yes";"yes";"yes";"yes";"yes";"no";"yes";"abstain";"yes";"yes";"yes";"yes";"yes";"yes"
"Pakistan";"yes";"yes";"yes";"yes";"yes";"yes";"yes";"abstain";"no";"yes";"abstain";"yes";"yes";"yes";"yes";"yes";"yes"
"Palau";NA;NA;NA;NA;NA;"yes";"yes";"yes";"yes";"no";"yes";"yes";"yes";NA;NA;NA;NA
"Panama";"abstain";"yes";"abstain";"yes";"abstain";"yes";"yes";"yes";"yes";"abstain";"yes";"yes";"yes";"abstain";"yes";"abstain";"yes"
"Papua New Guinea";"abstain";"abstain";"abstain";"abstain";"abstain";"yes";"yes";"yes";"abstain";"abstain";"yes";"abstain";"yes";"abstain";"abstain";"abstain";"abstain"
"Paraguay";"abstain";"abstain";"abstain";"abstain";"abstain";"yes";"yes";"yes";"yes";"abstain";"yes";"yes";"yes";"abstain";"abstain";"abstain";"abstain"
"Peru";"yes";"yes";"abstain";"yes";"abstain";"yes";"yes";"yes";"yes";"abstain";"yes";"yes";"yes";"yes";"yes";"abstain";"yes"
"Philippines";"yes";"yes";"yes";"yes";"yes";"yes";"yes";"yes";"abstain";"abstain";"yes";"no";"yes";"yes";"yes";"yes";"yes"
"Poland";"yes";"yes";"abstain";"yes";"abstain";"yes";"yes";"yes";"yes";"abstain";"yes";"yes";"yes";"yes";"yes";"abstain";"yes"
"Portugal";"yes";"yes";"abstain";"yes";"abstain";"yes";"yes";"yes";"yes";"abstain";"yes";"yes";"yes";"yes";"yes";"abstain";"yes"
"Qatar";"yes";"yes";"yes";NA;NA;"yes";"yes";"yes";"abstain";"yes";"abstain";"yes";"yes";"yes";"yes";"yes";NA
"South Korea";"yes";"yes";"abstain";"yes";"abstain";"yes";"yes";"abstain";"yes";"abstain";"yes";"yes";"yes";"yes";"yes";"abstain";"yes"
"Moldova";"yes";"yes";"abstain";"yes";"abstain";"yes";"yes";"yes";"yes";"abstain";"yes";"yes";"yes";"yes";"yes";"abstain";"yes"
"Romania";"yes";"yes";"abstain";"yes";"abstain";"yes";"yes";"yes";"yes";"abstain";"yes";"yes";"yes";"yes";"yes";"abstain";"yes"
"Russia";"yes";"yes";"abstain";"yes";"abstain";"no";"abstain";"no";"no";"abstain";"yes";"no";"abstain";"yes";"yes";"abstain";"yes"
"Rwanda";NA;NA;NA;NA;NA;"abstain";"yes";"yes";"abstain";"abstain";"yes";"yes";"yes";NA;NA;NA;NA
"St. Kitts & Nevis";"yes";"yes";"yes";"yes";"yes";"yes";"yes";"yes";"yes";"yes";"yes";"yes";"yes";"yes";"yes";"yes";"yes"
"St. Lucia";"yes";"yes";"yes";"yes";"yes";"yes";"yes";"yes";"yes";NA;"yes";"yes";"yes";"yes";"yes";"yes";"yes"
"St. Vincent & Grenadines";"yes";"yes";"yes";"yes";"yes";"yes";"yes";"yes";"abstain";"yes";"yes";NA;"yes";"yes";"yes";"yes";"yes"
"Samoa";"yes";"yes";"yes";"yes";"yes";"yes";"yes";"yes";"yes";"abstain";"yes";NA;"yes";"yes";"yes";"yes";"yes"
"San Marino";"yes";"yes";"abstain";"yes";"abstain";"yes";"yes";"abstain";"yes";"abstain";"yes";"yes";"yes";"yes";"yes";"abstain";"yes"
"São Tomé & Príncipe";NA;NA;NA;NA;NA;NA;NA;NA;NA;NA;NA;NA;NA;NA;NA;NA;NA
"Saudi Arabia";"yes";"yes";"yes";"yes";"yes";"yes";"yes";"yes";"yes";"yes";"yes";"yes";"yes";"yes";"yes";"yes";"yes"
"Senegal";"yes";"yes";"yes";"yes";"yes";"yes";"yes";"yes";"abstain";"yes";"yes";NA;"yes";"yes";"yes";"yes";"yes"
"Yugoslavia";"yes";"yes";"abstain";"yes";"abstain";NA;"yes";"yes";NA;"abstain";"yes";NA;"yes";"yes";"yes";"abstain";"yes"
"Seychelles";"yes";"yes";"yes";"yes";"yes";NA;"yes";NA;"yes";NA;"yes";NA;NA;"yes";"yes";"yes";"yes"
"Sierra Leone";"yes";"yes";"yes";"yes";"yes";"yes";"yes";"yes";"abstain";"yes";"yes";"yes";"yes";"yes";"yes";"yes";"yes"
"Singapore";"yes";"yes";"yes";"yes";"yes";"yes";"yes";"yes";"abstain";"yes";"yes";"abstain";"yes";"yes";"yes";"yes";"yes"
"Slovakia";"yes";"yes";"abstain";"yes";"abstain";"yes";"yes";"yes";"yes";"abstain";"yes";"yes";"yes";"yes";"yes";"abstain";"yes"
"Slovenia";"yes";"yes";"abstain";"yes";"abstain";"yes";"yes";"yes";"yes";"abstain";"yes";"yes";"yes";"yes";"yes";"abstain";"yes"
"Solomon Islands";"yes";"no";"no";"no";"no";"yes";"yes";"yes";"yes";"abstain";"yes";"yes";"yes";"yes";"no";"no";"no"
"Somalia";"yes";"yes";"yes";"yes";"yes";"yes";"yes";"yes";"abstain";NA;NA;NA;"yes";"yes";"yes";"yes";"yes"
"South Africa";"yes";"yes";"yes";"yes";"yes";"yes";"yes";"abstain";"no";"yes";"abstain";"abstain";"yes";"yes";"yes";"yes";"yes"
"South Sudan";"abstain";"abstain";"abstain";"abstain";"abstain";NA;NA;NA;NA;"abstain";NA;NA;NA;"abstain";"abstain";"abstain";"abstain"
"Spain";"yes";"yes";"abstain";"yes";"abstain";"yes";"yes";"yes";"yes";"abstain";"yes";"yes";"yes";"yes";"yes";"abstain";"yes"
"Sri Lanka";"yes";"yes";"yes";"yes";"yes";"yes";"yes";"yes";"abstain";"yes";"yes";"abstain";"yes";"yes";"yes";"yes";"yes"
"Sudan";"yes";"yes";"yes";"yes";"yes";"yes";"abstain";"yes";"abstain";"yes";"abstain";"yes";"yes";"yes";"yes";"yes";"yes"
"Suriname";"yes";"yes";"yes";"yes";"yes";NA;"yes";"yes";"abstain";"yes";"yes";NA;"yes";"yes";"yes";"yes";"yes"
"Eswatini";NA;NA;NA;NA;NA;"yes";"yes";"yes";NA;NA;"yes";NA;"yes";NA;NA;NA;NA
"Sweden";"yes";"yes";"abstain";"yes";"abstain";"yes";"yes";"yes";"yes";"abstain";"yes";"yes";"yes";"yes";"yes";"abstain";"yes"
"Switzerland";"yes";"yes";"abstain";"yes";"abstain";"yes";"yes";"yes";"yes";"abstain";"yes";"yes";"yes";"yes";"yes";"abstain";"yes"
"Syria";"yes";"yes";"yes";"yes";"yes";"no";"abstain";"no";"no";"yes";"no";"no";"abstain";"yes";"yes";"yes";"yes"
"Tajikistan";"yes";"yes";"yes";"yes";"yes";"yes";"yes";"yes";"abstain";"yes";"yes";"yes";"yes";"yes";"yes";"yes";"yes"
"Thailand";"yes";"yes";"yes";"yes";"yes";"yes";"yes";"yes";"abstain";"abstain";"yes";"abstain";"yes";"yes";"yes";"yes";"yes"
"North Macedonia";"yes";"yes";"abstain";"yes";"abstain";"yes";"yes";"yes";"yes";"abstain";"yes";"yes";"yes";"yes";"yes";"abstain";"yes"
"Timor-Leste";NA;NA;NA;NA;NA;"yes";"yes";"yes";"yes";"abstain";"yes";"abstain";"yes";NA;NA;NA;NA
"Togo";"abstain";"yes";"abstain";"abstain";"abstain";"yes";"yes";"yes";"abstain";"abstain";"yes";"abstain";"yes";"abstain";"yes";"abstain";"abstain"
"Tonga";NA;"abstain";"abstain";"abstain";"abstain";NA;NA;"yes";"abstain";"abstain";"yes";NA;"yes";NA;"abstain";"abstain";"abstain"
"Trinidad & Tobago";NA;"yes";"yes";"yes";"yes";"yes";"yes";"yes";"abstain";"yes";"yes";"yes";"yes";NA;"yes";"yes";"yes"
"Tunisia";"yes";"yes";"yes";"yes";"yes";"yes";"yes";"yes";"abstain";"yes";"abstain";"yes";"yes";"yes";"yes";"yes";"yes"
"Turkey";"yes";"yes";"yes";"yes";"yes";"yes";"yes";"yes";NA;"yes";"yes";"yes";"yes";"yes";"yes";"yes";"yes"
"Turkmenistan";"yes";"yes";"yes";"yes";"yes";NA;"yes";"yes";"no";"yes";"yes";NA;"yes";"yes";"yes";"yes";"yes"
"Tuvalu";NA;NA;NA;NA;NA;NA;"yes";"yes";"yes";"abstain";NA;"yes";"yes";NA;NA;NA;NA
"Uganda";"yes";"yes";"yes";"yes";"yes";"abstain";"yes";"yes";"no";"yes";"yes";NA;"yes";"yes";"yes";"yes";"yes"
"Ukraine";"yes";"yes";"abstain";"yes";"abstain";"yes";"yes";"yes";"yes";"abstain";"yes";"yes";"yes";"yes";"yes";"abstain";"yes"
"United Arab Emirates";"yes";"yes";"yes";"yes";"yes";"yes";"yes";"yes";"yes";"yes";"abstain";"yes";"yes";"yes";"yes";"yes";"yes"
"United Kingdom";"yes";"yes";"abstain";"yes";"abstain";"yes";"yes";"yes";"yes";"abstain";"yes";"yes";"yes";"yes";"yes";"abstain";"yes"
"Tanzania";"yes";"yes";"yes";"yes";"yes";"abstain";"yes";"yes";"abstain";"yes";"yes";"yes";"yes";"yes";"yes";"yes";"yes"
"United States";"no";"no";"no";"no";"no";"yes";"yes";"yes";"yes";"no";"yes";"yes";"yes";"no";"no";"no";"no"
"Uruguay";"yes";"yes";"yes";"yes";"yes";"yes";"yes";"yes";"abstain";"abstain";"yes";"yes";"yes";"yes";"yes";"yes";"yes"
"Uzbekistan";"yes";"yes";"yes";"yes";"yes";"yes";"yes";"yes";"no";"yes";"yes";NA;NA;"yes";"yes";"yes";"yes"
"Vanuatu";NA;NA;NA;NA;NA;"yes";"yes";"yes";"yes";"abstain";"yes";NA;"yes";NA;NA;NA;NA
"Venezuela";"yes";"yes";"yes";"yes";"yes";"abstain";"abstain";"abstain";"no";"yes";"yes";"abstain";"abstain";"yes";"yes";"yes";"yes"
"Vietnam";"yes";"yes";"yes";"yes";"yes";"yes";"yes";"yes";"no";"yes";"yes";"no";"yes";"yes";"yes";"yes";"yes"
"Yemen";"yes";"yes";"yes";"yes";"yes";"yes";"yes";"yes";"yes";"yes";"abstain";"yes";"yes";"yes";"yes";"yes";"yes"
"Zambia";"yes";"yes";"yes";"yes";"yes";"yes";"yes";"yes";"abstain";"yes";"yes";NA;"yes";"yes";"yes";"yes";"yes"
"Zimbabwe";"yes";"yes";"yes";"yes";"yes";"no";"abstain";"abstain";"no";"yes";NA;"no";"abstain";"yes";"yes";"yes";"yes"
